import com.quote.search.api.model.PolicySearch;
import com.quote.search.api.domain.PolicySearchRuleResult;
import java.util.*;

global com.quote.search.api.domain.PolicySearchRuleResult ruleResult;

dialect  "mvel"

rule "Check the insurer INS1 - Scenario 1"
    when
        policySearchInstance:PolicySearch(postCode != null);
    then
    	ruleResult.getMatchingResult().add("INS1");
end
rule "Check the insurer INS2 - Scenario 1"
    when
        policySearchInstance:PolicySearch(postCode not in ("2000","2001") && occupation  not in ("Butcher"));
    then
    	ruleResult.getMatchingResult().add("INS2");
end
rule "Check the insurer INS3 - Scenario 1"
    when
        policySearchInstance:PolicySearch((postCode not in ("2000") && occupation  not in ("Butcher", "Plumber")) && (turnover > 200000));
    then
    	ruleResult.getMatchingResult().add("INS3");
end
rule "Check the insurer INS4 - Scenario 1"
    when
        policySearchInstance:PolicySearch((turnover > 400000));
    then
    	ruleResult.getMatchingResult().add("INS4");
end
rule "Check the insurer INS5 - Scenario 1"
    when
        policySearchInstance:PolicySearch(turnover > 400000);
    then
    	ruleResult.getMatchingResult().add("INS5");
end

